<?xml version="1.0" encoding="UTF-8"?>
<svg width="12px" height="21px" viewBox="0 0 12 21" version="1.1" xmlns="http://www.w3.org/2000/svg" xmlns:xlink="http://www.w3.org/1999/xlink">
    <!-- Generator: Sketch 45.2 (43514) - http://www.bohemiancoding.com/sketch -->
    <title>selectArrows</title>
    <desc>Created with Sketch.</desc>
    <defs></defs>
    <g id="Page-1" stroke="none" stroke-width="1" fill="none" fill-rule="evenodd">
        <g id="selectArrows" fill="#000000">
            <g id="Group">
                <polygon id="keyboard_arrow_down---material" points="1.416 13 6 17.608 10.584 13 12 14.416 6 20.416 0 14.416"></polygon>
                <polygon id="" transform="translate(6.000000, 3.708000) scale(1, -1) translate(-6.000000, -3.708000) " points="1.416 0 6 4.608 10.584 0 12 1.416 6 7.416 0 1.416"></polygon>
            </g>
        </g>
    </g>
</svg>