{
  "url": "https:\/\/twitter.com\/drupaldevdays\/status\/935643039741202432",
  "author_name": "Drupal Dev Days",
  "author_url": "https:\/\/twitter.com\/drupaldevdays",
  "html": "<h1>By the power of Greyskull, Twitter works!</h1>",
  "width": 550,
  "height": 360,
  "type": "rich",
  "cache_age": "3153600000",
  "provider_name": "Twitter",
  "provider_url": "https:\/\/twitter.com",
  "version": "1.0"
}
